API terms and statistics – OldBaileyOnline ~ Data
…
Translating from the search form to agg query strings, the first search box is equivalent to series and the second, if you want it, is rows. As far as I can tell from testing you’ll never need anything else. You can have any combination of variables you like in crosstabs (though some are likely to make more sense than others).

a crosstabs example

Let’s say I’d like a breakdown of offence subcategories per year, counting by offence.

agg_query_url <- "https://www.dhi.ac.uk/api/data/csv/agg/oldbailey_offence?rows=offence_subcategory&series=year"

offence_subcategory_year_csv <- read_csv(agg_query_url)

The result:

offence_subcategory_year_csv

# A tibble: 240 × 74
     key doc_count animalTheft bigamy burglary coiningOffences grandLarceny
   <dbl>     <dbl>       <dbl>  <dbl>    <dbl>           <dbl>        <dbl>
 1  1674        41           5      1       12               1            1
 2  1675        59           4      0        8               1            7
 3  1676        87           4      5       11               1            9
 4  1677        91           6      2        8               5            7
 5  1678       132          16      4        2               8           26
 6  1679       131          10      0        6              10            8
 7  1680       127           5      1       16               9           21
 8  1681       135           8      3       11               2           22
 9  1682       174           5      4        7               5           34
10  1683       215          17      3        5              10           34
# ℹ 230 more rows
# ℹ 67 more variables: highwayRobbery <dbl>, housebreaking <dbl>,
#   infanticide <dbl>, killOther <dbl>, murder <dbl>, rape <dbl>,
#   receiving <dbl>, religiousOffences <dbl>, theftFromPlace <dbl>,
#   theftOther <dbl>, arson <dbl>, assault <dbl>, forgery <dbl>,
#   miscellaneousOther <dbl>, pervertingJustice <dbl>, pettyLarceny <dbl>,
#   pettyTreason <dbl>, pocketpicking <dbl>, robbery <dbl>, …
…
all the combinations for crosstabs

There is a neat R function, combn(), to make a set of all unique pairs from a list, when you want to avoid reverse-duplicates (ie, you don’t need both “a”+“b” and “b”+“a”). The only downside is that it returns a matrix, so you need to convert back to a tibble/dataframe.

obo_agg_variables_pairs <-
combn(obo_agg_variables_names, m=2 ) |>
  # it's a *very* wide matrix; t() transposes rows and columns
  t() |>
  # convert matrix to tibble; .name_repair to create column names
  as_tibble(.name_repair = ~c("series", "rows"))

obo_agg_variables_pairs

# A tibble: 120 × 2
   series           rows                  
   <chr>            <chr>                 
 1 offence_category offence_subcategory   
 2 offence_category plea                  
 3 offence_category verdict_category      
 4 offence_category verdict_subcategory   
 5 offence_category punishment_category   
 6 offence_category punishment_subcategory
 7 offence_category defendant_gender      
 8 offence_category defendant_age         
 9 offence_category victim_gender         
10 offence_category victim_age            
# ℹ 110 more rows

On the other hand, if you want all the possible combinations including reverse-duplicates, you could instead use tidyr::expand_grid() which will “create a tibble from all combinations of inputs”. That’ll include identical pairs, so you need to filter those out.

obo_agg_variables_pairs_all <-
  expand_grid(rows=obo_agg_variables_names, 
              series=obo_agg_variables_names) |>
  filter(rows != series)

obo_agg_variables_pairs_all

# A tibble: 240 × 2
   rows             series                
   <chr>            <chr>                 
 1 offence_category offence_subcategory   
 2 offence_category plea                  
 3 offence_category verdict_category      
 4 offence_category verdict_subcategory   
 5 offence_category punishment_category   
 6 offence_category punishment_subcategory
 7 offence_category defendant_gender      
 8 offence_category defendant_age         
 9 offence_category victim_gender         
10 offence_category victim_age            
# ℹ 230 more rows
…
